…
```
# A tibble: 3 x 2
  name  sex   
  <chr> <chr> 
1 Adam  male  
2 Eve   female
3 Steve male  
```

```r
as.tibble(iris)
```

```
# A tibble: 150 x 5
   Sepal.Length Sepal.Width Petal.Length Petal.Width Species
          <dbl>       <dbl>        <dbl>       <dbl> <fct>  
 1          5.1         3.5          1.4         0.2 setosa 
 2          4.9         3            1.4         0.2 setosa 
 3          4.7         3.2          1.3         0.2 setosa 
 4          4.6         3.1          1.5         0.2 setosa 
 5          5           3.6          1.4         0.2 setosa 
 6          5.4         3.9          1.7         0.4 setosa 
 7          4.6         3.4          1.4         0.3 setosa 
 8          5           3.4          1.5         0.2 setosa 
 9          4.4         2.9          1.4         0.2 setosa 
10          4.9         3.1          1.5         0.1 setosa 
# ... with 140 more rows
```
…
```r
library(dplyr)
iris %>%
  as.tibble() %>%
  select(Species, Sepal.Length, Sepal.Width) %>%
  mutate(Sepal.Volume = Sepal.Width ^ 2 * pi * Sepal.Length) %>%
  filter(Sepal.Volume > 100) %>%
  arrange(Sepal.Volume)
```

```
# A tibble: 139 x 4
   Species    Sepal.Length Sepal.Width Sepal.Volume
   <fct>             <dbl>       <dbl>        <dbl>
 1 versicolor          5.1         2.5         100.
 2 versicolor          6.3         2.3         105.
 3 versicolor          5.5         2.5         108.
 4 versicolor          5.6         2.5         110.
 5 virginica           5.7         2.5         112.
 6 setosa              4.4         2.9         116.
 7 versicolor          5.5         2.6         117.
 8 versicolor          5.2         2.7         119.
 9 versicolor          5.7         2.6         121.
10 setosa              4.3         3           122.
# ... with 129 more rows
```
…
Tidyverse - tidyr II
========================================================


```r
iris %>%
  as.tibble() %>% 
  gather(key = flower_att, value = measurement,
       Sepal.Length, Sepal.Width, Petal.Length, Petal.Width)
```

```
# A tibble: 600 x 3
   Species flower_att   measurement
   <fct>   <chr>              <dbl>
 1 setosa  Sepal.Length         5.1
 2 setosa  Sepal.Length         4.9
 3 setosa  Sepal.Length         4.7
 4 setosa  Sepal.Length         4.6
 5 setosa  Sepal.Length         5  
 6 setosa  Sepal.Length         5.4
 7 setosa  Sepal.Length         4.6
 8 setosa  Sepal.Length         5  
 9 setosa  Sepal.Length         4.4
10 setosa  Sepal.Length         4.9
# ... with 590 more rows
```
…
Let's format the nasty ones
========================================================

```r
library(stringr)
esoph %>% as.tibble() %>%
  mutate(agegp = str_remove(agegp,"\\+"), 
         alcgp = str_remove(alcgp,"\\+") %>% str_remove("g/day"),
         tobgp = str_remove(tobgp,"\\+") %>% str_remove("g/day"))
```

```
# A tibble: 88 x 5
   agegp alcgp  tobgp ncases ncontrols
   <chr> <chr>  <chr>  <dbl>     <dbl>
 1 25-34 0-39   0-9        0        40
 2 25-34 0-39   10-19      0        10
 3 25-34 0-39   20-29      0         6
 4 25-34 0-39   30         0         5
 5 25-34 40-79  0-9        0        27
 6 25-34 40-79  10-19      0         7
 7 25-34 40-79  20-29      0         4
 8 25-34 40-79  30         0         7
 9 25-34 80-119 0-9        0         2
10 25-34 80-119 10-19      0         1
# ... with 78 more rows
```
Let's segment information
========================================================

```r
esoph %>% as.tibble() %>%
  mutate(agegp = str_remove(agegp,"\\+"), 
         alcgp = str_remove(alcgp,"\\+") %>% str_remove("g/day"),
         tobgp = str_remove(tobgp,"\\+") %>% str_remove("g/day")) %>%
  separate(agegp, c("agegp_min","agegp_max"), extra = "merge") %>%
  separate(alcgp, c("alcgp_min","alcgp_max"), extra = "merge") %>%
  separate(tobgp, c("tobgp_min","tobgp_max"), extra = "merge")
```

```
# A tibble: 88 x 8
   agegp_min agegp_max alcgp_min alcgp_max tobgp_min tobgp_max ncases
   <chr>     <chr>     <chr>     <chr>     <chr>     <chr>      <dbl>
 1 25        34        0         39        0         9              0
 2 25        34        0         39        10        19             0
 3 25        34        0         39        20        29             0
 4 25        34        0         39        30        <NA>           0
 5 25        34        40        79        0         9              0
 6 25        34        40        79        10        19             0
 7 25        34        40        79        20        29             0
 8 25        34        40        79        30        <NA>           0
 9 25        34        80        119       0         9              0
10 25        34        80        119       10        19             0
# ... with 78 more rows, and 1 more variable: ncontrols <dbl>
```
…
```r
esoph %>% as.tibble() %>%
  mutate(agegp = str_remove(agegp,"\\+"), 
         alcgp = str_remove(alcgp,"\\+") %>% str_remove("g/day"),
         tobgp = str_remove(tobgp,"\\+") %>% str_remove("g/day")) %>%
  separate(agegp, c("agegp_min","agegp_max"), extra = "merge", convert = TRUE) %>%
  separate(alcgp, c("alcgp_min","alcgp_max"), extra = "merge", convert = TRUE) %>%
  separate(tobgp, c("tobgp_min","tobgp_max"), extra = "merge", convert = TRUE) %>%
  mutate(prob = ncases/ncontrols) %>%
  select(prob, age = agegp_min, alcohol = alcgp_min, tobacco = tobgp_min)
```

```
# A tibble: 88 x 4
    prob   age alcohol tobacco
   <dbl> <int>   <int>   <int>
 1     0    25       0       0
 2     0    25       0      10
 3     0    25       0      20
 4     0    25       0      30
 5     0    25      40       0
 6     0    25      40      10
 7     0    25      40      20
 8     0    25      40      30
 9     0    25      80       0
10     0    25      80      10
# ... with 78 more rows
```
…
