…
Let's trade Bitcoin! Or not. Whatever.
========================================================

[Here](http://bitcoincharts.com) you can get some sweet exchange datasets, let's download some.

```r
library(readr)
read_csv("http://api.bitcoincharts.com/v1/csv/anxhkUSD.csv.gz") 
```

```
# A tibble: 640,824 x 3
   `1376999407` `100.000000000000` `5.000000000000`
          <int>              <dbl>            <dbl>
 1   1376999726                99              5.5 
 2   1377000070                99              0.05
 3   1377000070               100              0.95
 4   1377000113               100              4   
 5   1377005870               100              1.05
 6   1377019633               103              3.5 
 7   1377042357                99              1.2 
 8   1377042421               102              3   
 9   1377042472                99              2.5 
10   1377101655               102.             1.2 
# ... with 640,814 more rows
```
Hmm. Interesting.

Figuring out the dataset, make it tidy
========================================================


```r
library(magrittr)
readr::read_csv("http://api.bitcoincharts.com/v1/csv/anxhkUSD.csv.gz", col_names = c("date", "volume", "price")) %>%
  dplyr::mutate(date = as.POSIXct(date, origin="1970-01-01"))
```

```
# A tibble: 640,825 x 3
   date                volume price
   <dttm>               <dbl> <dbl>
 1 2013-08-20 13:50:07    100  5   
 2 2013-08-20 13:55:26     99  5.5 
 3 2013-08-20 14:01:10     99  0.05
 4 2013-08-20 14:01:10    100  0.95
 5 2013-08-20 14:01:53    100  4   
 6 2013-08-20 15:37:50    100  1.05
 7 2013-08-20 19:27:13    103  3.5 
 8 2013-08-21 01:45:57     99  1.2 
 9 2013-08-21 01:47:01    102  3   
10 2013-08-21 01:47:52     99  2.5 
# ... with 640,815 more rows
```
…
